Id,FirstName,LastName,Email,AlternateEmail,Phone,Mobile,IsSystemContact,AppearInListOrderConfirmations,FirstInListOrderConfirmations,ReceiveAllOrderConfirmations,ReceiveOwnInvoices,ReceiveAllInvoices,ReceiveStatements,ReceiveShipConfirmations,ReceiveAllShipConfirmations,OptOutMarketing,ReceiveSpecials,ReceiveNewsletters,ReceiveTraining,CustomerNumber,PrimaryRoleName
1,Mindaugas,Lee,mindaugas@coronica.ie,,545555444544,+370 656 365665,False,True,False,True,True,True,True,False,False,True,True,True,False,VERSION        ,
2,Martynas,Zee,martynas@coronica.ie,,545555444544,+370 656 365665,False,True,False,True,True,True,True,False,False,True,True,True,False,VERSION        ,
3,Deividas,Dee,deividas@coronica.ie,,545555444544,+370 656 365665,False,True,False,True,True,True,True,False,False,True,True,True,False,VERSION        ,
